"End Time","In","Out","Total Inside"
"2023-03-29 23:48:27.495380","1","1","10"
"","2","",""
"","3","",""
"","4","",""
"","5","",""
"","6","",""
"","7","",""
"","8","",""
"","9","",""
"","10","",""
"","11","",""
